[gd_scene load_steps=3 format=1]

[ext_resource path="res://addons/2d_platformer_controller/2d_platformer_kinematicbody.gd" type="Script" id=1]

[sub_resource type="CircleShape2D" id=1]

custom_solver_bias = 0.0
radius = 10.0

[node name="KinematicBody2D" type="KinematicBody2D"]

input/pickable = false
shapes/0/shape = SubResource( 1 )
shapes/0/transform = Matrix32( 1, 0, 0, 1, 0, 0 )
shapes/0/trigger = false
collision/layers = 1
collision/mask = 1
collision/margin = 0.08
script/script = ExtResource( 1 )
WALK_FORCE = 600
STOP_FORCE = 1300
JUMP_FORCE = 400
WALK_MIN_SPEED = 10
WALK_MAX_SPEED = 200
GRAVITY = 500
MASS = 50.0

[node name="Sprite" type="Sprite" parent="."]

[node name="CollisionShape2D" type="CollisionShape2D" parent="."]

shape = SubResource( 1 )
trigger = false
_update_shape_index = 0


